{
  "campaigns": [
    {
      "id": 1,
      "campaignName": "My new campaign",
      "campaignLastModifiedUser": "Jesper",
      "campaignLastModifiedDateTime": "2017-09-07T18:25"
    },
    {
      "id": 2,
      "campaignName": "Turner tags",
      "campaignLastModifiedUser": "Jesper",
      "campaignLastModifiedDateTime": "2017-09-08T18:25"
    },
    {
      "id": 3,
      "campaignName": "Bloomberg tags",
      "campaignLastModifiedUser": "Jesper",
      "campaignLastModifiedDateTime": "2017-09-09T18:25"
    },
    {
      "id": 4,
      "campaignName": "Mansueto tags",
      "campaignLastModifiedUser": "Jesper",
      "campaignLastModifiedDateTime": "2017-09-13T18:25"
    }
  ]
}